<?xml version="1.0" encoding="UTF-8" standalone="no"?>
<!-- Generator: Adobe Illustrator 19.2.1, SVG Export Plug-In . SVG Version: 6.00 Build 0)  -->
<!DOCTYPE svg  PUBLIC '-//W3C//DTD SVG 1.1//EN'  'http://www.w3.org/Graphics/SVG/1.1/DTD/svg11.dtd' [
	<!ENTITY ns_extend "http://ns.adobe.com/Extensibility/1.0/">
	<!ENTITY ns_ai "http://ns.adobe.com/AdobeIllustrator/10.0/">
	<!ENTITY ns_graphs "http://ns.adobe.com/Graphs/1.0/">
	<!ENTITY ns_vars "http://ns.adobe.com/Variables/1.0/">
	<!ENTITY ns_imrep "http://ns.adobe.com/ImageReplacement/1.0/">
	<!ENTITY ns_sfw "http://ns.adobe.com/SaveForWeb/1.0/">
	<!ENTITY ns_custom "http://ns.adobe.com/GenericCustomNamespace/1.0/">
	<!ENTITY ns_adobe_xpath "http://ns.adobe.com/XPath/1.0/">
]>
<svg id="Layer_1" style="enable-background:new 0 0 792 173.7" xmlns="http://www.w3.org/2000/svg" xml:space="preserve" viewBox="0 0 792 173.7" version="1.1" y="0px" x="0px" xmlns:xlink="http://www.w3.org/1999/xlink">
<style type="text/css">
	.st0{fill:#263746;}
	.st1{fill:#FFFFFF;}
	.st2{opacity:0.4;fill:#00B3E3;}
	.st3{fill:#99E1F4;}
	.st4{fill:#1A82E2;}
	.st5{fill:#00B3E3;}
	.st6{fill:#009DD9;}
</style>
<switch>
	<foreignObject y="0" x="0" height="1" width="1" requiredExtensions="http://ns.adobe.com/AdobeIllustrator/10.0/">
	</foreignObject>
	<g>
			<path class="st0" d="m179.3 132l18.5-14.5c5.2 9 13.5 14.2 23 14.2 10.3 0 15.8-6.7 15.8-14 0-8.7-10.6-11.5-21.9-15-14.2-4.4-30.1-9.9-30.1-30.2 0-17 14.8-30.5 35.3-30.5 17.3 0 27.2 6.5 35.8 15.4l-16.7 12.6c-4.4-6.5-10.6-10-18.9-10-9.4 0-14.5 5.1-14.5 11.8 0 8.1 10.2 10.9 21.5 14.7 14.4 4.7 30.7 11 30.7 31.4 0 16.9-13.4 33.1-36.8 33.1-19.3 0-32.1-8.1-41.7-19zm162.6-55.1h19.8v8.1c4.7-6 11.8-9.6 20.1-9.6 17.1 0 27.5 11 27.5 29.8v44.3h-20.3v-41.7c0-9.7-4.5-15.4-13.4-15.4-7.6 0-13.8 5.2-13.8 17.4v39.7h-19.9v-72.6zm72 36.3c0-25.7 18.9-37.8 35.3-37.8 9.4 0 16.9 3.5 21.7 8.6v-40.5h19.9v106.1h-19.9v-8.1c-4.8 5.7-12.5 9.6-21.9 9.6-15.5-0.1-35.1-12.3-35.1-37.9zm57.5-0.1c0-10.8-7.8-19.5-18.6-19.5-11 0-19.5 8.3-19.5 19.5s8.4 19.6 19.5 19.6c10.8 0 18.6-8.9 18.6-19.6zm24-16.6c0-30.2 22.8-54.5 54.2-54.5 15.7 0 28.9 5.7 38.5 14.7 3.9 3.7 7.2 7.9 9.8 12.5l-17.8 10.8c-6.5-12.1-16.6-18.3-30.4-18.3-19.3 0-34.3 15.8-34.3 34.9 0 19.5 14.7 34.9 35 34.9 15.4 0 26.3-8.7 30.1-22.2h-33.3v-19.5h55.1v8.2c0 28.5-20.3 53-51.9 53-33.1 0-55-25.1-55-54.5zm112-19.6h19.8v11.9c3.6-7.6 10.2-11.9 20.1-11.9h8l-7.3 19.3h-5.4c-10.6 0-15.3 5.5-15.3 19v34.3h-19.9v-72.6zm53 0h19.9v72.7h-19.9v-53.4h-7.2l7.2-19.3zm10-11.1c6.6 0 11.9-5.3 11.9-11.9s-5.3-11.9-11.9-11.9-11.9 5.3-11.9 11.9 5.3 11.9 11.9 11.9zm14.6 47.4c0-25.7 18.9-37.8 35.3-37.8 9.4 0 16.9 3.5 21.7 8.6v-40.5h19.9v106.1h-19.9v-8.1c-4.8 5.7-12.5 9.6-21.9 9.6-15.5-0.1-35.1-12.3-35.1-37.9zm57.6-0.1c0-10.8-7.8-19.5-18.6-19.5-11 0-19.5 8.3-19.5 19.5s8.4 19.6 19.5 19.6c10.7 0 18.6-8.9 18.6-19.6zm-405.4 0c0-20.9-15.3-37.6-37.5-37.6-20.9 0-37.8 16.9-37.8 37.8s15.7 37.8 38.4 37.8c15.7 0 27-7.6 33.3-18.4l-15.8-9.4c-3.3 6.4-9.8 10.4-17.4 10.4-10.5 0-17-5.2-19.3-13.2h56.1v-7.4zm-55.2-8.7c3.1-6.8 9.4-11.5 17.9-11.5 8.4 0 14.7 3.9 17.3 11.5h-35.2z"/>
			<rect y="22.3" x="70.6" height="42.4" class="st1" width="0"/>
			<polygon points="113.1 149.6 70.6 149.6 70.6 107.1 28.2 107.1 28.2 107.1 70.6 107.1 70.6 149.6 113.1 149.6 113.1 107.1 155.5 107.1 155.5 107.1 113.1 107.1" class="st1"/>
			<rect y="22.3" x="155.5" height="42.4" class="st1" width="0"/>
			<polygon points="70.6 64.7 70.6 64.7 28.2 64.7 28.2 107.1 28.2 107.1 28.2 64.7" class="st2"/>
			<polygon points="70.6 64.7 70.6 64.7 70.6 64.7 28.2 64.7 28.2 107.1 70.6 107.1" class="st1"/>
			<polygon points="70.6 64.7 70.6 64.7 70.6 64.7 28.2 64.7 28.2 107.1 70.6 107.1" class="st3"/>
			<rect y="107.1" x="70.6" height="42.4" class="st1" width="42.4"/>
			<rect y="107.1" x="70.6" height="42.4" class="st3" width="42.4"/>
			<rect y="107.1" x="28.2" height="42.4" class="st4" width="42.4"/>
			<rect y="64.7" x="155.5" height="42.4" class="st5" width="0"/>
			<rect y="22.3" x="70.6" height="0" class="st5" width="42.4"/>
			<rect y="22.3" x="70.6" height="42.4" class="st1" width="42.4"/>
			<rect y="22.3" x="70.6" height="42.4" class="st5" width="42.4"/>
			<polygon points="155.5 64.7 155.5 64.7 113.1 64.7 113.1 107.1 155.5 107.1" class="st1"/>
			<polygon points="155.5 64.7 155.5 64.7 113.1 64.7 113.1 107.1 155.5 107.1" class="st5"/>
			<polygon points="70.6 64.7 70.6 107.1 113.1 107.1 113.1 64.7 113.1 64.7" class="st6"/>
			<rect y="22.3" x="113.1" height="42.4" class="st4" width="42.4"/>
			<rect y="64.7" x="113.1" height="0" class="st4" width="42.4"/>
	</g>
</switch>
</svg>
